digraph Go_signal {
	node [shape=doublecircle] N12_0 N3_0 N32_0 N20_0 init_0 N25_0;
	node [shape=none label=""] i0 i1 i2 i3 i4 i5;
	node [shape=circle label="\N"];
	i0 -> N12_0;
	i1 -> N3_0;
	i2 -> N32_0;
	i3 -> init_0;
	i4 -> N25_0;
	N12_0 -> N20_0 [label="{N down, S down}"];
	init_0 -> N25_0 [label="{}"];
	N20_0 -> N12_0 [label="{N down, S down, signal}"];
	init_0 -> N32_0 [label="{N down, S down}"];
	N25_0 -> N32_0 [label="{S down}"];
	N3_0 -> N25_0 [label="{true}"];
	N25_0 -> N32_0 [label="{}"];
	N3_0 -> N25_0 [label="{N down}"];
	N12_0 -> N20_0 [label="{true, S down}"];
	N12_0 -> N12_0 [label="{N down, S down, signal}"];
	N25_0 -> N25_0 [label="{N down, S down}"];
	N25_0 -> N25_0 [label="{true, S down}"];
	N3_0 -> N3_0 [label="{true, N down, S down, signal}"];
	N3_0 -> N32_0 [label="{}"];
	init_0 -> N25_0 [label="{true}"];
	init_0 -> N3_0 [label="{true, N down, S down, signal}"];
	init_0 -> N12_0 [label="{N down, S down, signal}"];
	N3_0 -> N25_0 [label="{true, N down, S down}"];
	N25_0 -> N32_0 [label="{N down}"];
	init_0 -> N25_0 [label="{N down}"];
	init_0 -> N25_0 [label="{S down}"];
	N12_0 -> N20_0 [label="{S down}"];
	N25_0 -> N12_0 [label="{N down, S down, signal}"];
	N3_0 -> N32_0 [label="{N down, S down}"];
	init_0 -> N32_0 [label="{}"];
	N25_0 -> N3_0 [label="{N down, S down, signal}"];
	N3_0 -> N25_0 [label="{true, S down}"];
	N25_0 -> N25_0 [label="{N down}"];
	N25_0 -> N25_0 [label="{S down}"];
	N3_0 -> N12_0 [label="{N down, S down, signal}"];
	N12_0 -> N20_0 [label="{true, N down}"];
	N12_0 -> N20_0 [label="{N down}"];
	N25_0 -> N32_0 [label="{N down, S down}"];
	init_0 -> N25_0 [label="{true, N down, S down}"];
	N3_0 -> N32_0 [label="{S down}"];
	N3_0 -> N25_0 [label="{}"];
	N12_0 -> N20_0 [label="{true}"];
	N32_0 -> N12_0 [label="{N down, S down, signal}"];
	init_0 -> N32_0 [label="{S down}"];
	N25_0 -> N3_0 [label="{true, N down, S down, signal}"];
	init_0 -> N25_0 [label="{N down, S down}"];
	N25_0 -> N25_0 [label="{}"];
	init_0 -> N3_0 [label="{N down, S down, signal}"];
	N12_0 -> N20_0 [label="{true, N down, S down}"];
	N3_0 -> N25_0 [label="{true, N down}"];
	N12_0 -> N20_0 [label="{}"];
	N3_0 -> N3_0 [label="{N down, S down, signal}"];
	init_0 -> N25_0 [label="{true, S down}"];
	N3_0 -> N25_0 [label="{N down, S down}"];
	N25_0 -> N25_0 [label="{true, N down, S down}"];
	N3_0 -> N32_0 [label="{N down}"];
	init_0 -> N25_0 [label="{true, N down}"];
	N25_0 -> N25_0 [label="{true, N down}"];
	N25_0 -> N25_0 [label="{true}"];
	init_0 -> N32_0 [label="{N down}"];
	N3_0 -> N25_0 [label="{S down}"];
}
