digraph One_train {
	node [shape=doublecircle] init_0 N10_0 N1_0 N6_0 N9_0;
	node [shape=none label=""] i0 i1 i2 i3 i4;
	node [shape=circle label="\N"];
	i0 -> init_0;
	i1 -> N10_0;
	i2 -> N1_0;
	i3 -> N6_0;
	i4 -> N9_0;
	init_0 -> N6_0 [label="{b}"];
	init_0 -> N1_0 [label="{a, b, c, true}"];
	N9_0 -> N6_0 [label="{b}"];
	init_0 -> N6_0 [label="{a, b}"];
	N10_0 -> N6_0 [label="{b, c}"];
	N9_0 -> N6_0 [label="{b, true}"];
	N1_0 -> N6_0 [label="{a, b}"];
	init_0 -> N10_0 [label="{a, b, true}"];
	N10_0 -> N6_0 [label="{b, true}"];
	init_0 -> N9_0 [label="{}"];
	init_0 -> N1_0 [label="{a, true}"];
	init_0 -> N6_0 [label="{a, b, c, true}"];
	init_0 -> N10_0 [label="{true}"];
	N1_0 -> N6_0 [label="{a, b, c, true}"];
	init_0 -> N9_0 [label="{true}"];
	N1_0 -> N1_0 [label="{c, true}"];
	init_0 -> N6_0 [label="{b, c}"];
	N6_0 -> N6_0 [label="{a, b, c}"];
	init_0 -> N1_0 [label="{true}"];
	init_0 -> N9_0 [label="{b, true}"];
	N1_0 -> N10_0 [label="{a}"];
	init_0 -> N10_0 [label="{a}"];
	init_0 -> N9_0 [label="{b, c, true}"];
	N1_0 -> N9_0 [label="{b, c, true}"];
	N1_0 -> N1_0 [label="{a, c, true}"];
	N1_0 -> N6_0 [label="{a, b, c}"];
	init_0 -> N1_0 [label="{a, c, true}"];
	N10_0 -> N6_0 [label="{a, b}"];
	init_0 -> N1_0 [label="{c, true}"];
	N6_0 -> N6_0 [label="{b}"];
	N10_0 -> N6_0 [label="{b}"];
	init_0 -> N6_0 [label="{a, b, true}"];
	init_0 -> N6_0 [label="{b, c, true}"];
	N6_0 -> N6_0 [label="{a, b}"];
	N10_0 -> N6_0 [label="{a, b, c, true}"];
	init_0 -> N9_0 [label="{b, c}"];
	N1_0 -> N9_0 [label="{true}"];
	N1_0 -> N9_0 [label="{}"];
	N6_0 -> N6_0 [label="{b, c}"];
	N1_0 -> N10_0 [label="{b}"];
	N10_0 -> N6_0 [label="{a, b, true}"];
	init_0 -> N10_0 [label="{b, true}"];
	init_0 -> N10_0 [label="{a, true}"];
	init_0 -> N1_0 [label="{a, b, true}"];
	init_0 -> N10_0 [label="{}"];
	init_0 -> N9_0 [label="{c, true}"];
	N1_0 -> N10_0 [label="{true}"];
	N1_0 -> N9_0 [label="{b}"];
	N9_0 -> N6_0 [label="{b, c, true}"];
	N1_0 -> N1_0 [label="{a, b, true}"];
	N1_0 -> N6_0 [label="{a, b, true}"];
	N1_0 -> N10_0 [label="{a, b, true}"];
	N9_0 -> N6_0 [label="{b, c}"];
	N6_0 -> N6_0 [label="{a, b, c, true}"];
	N1_0 -> N10_0 [label="{b, true}"];
	N1_0 -> N9_0 [label="{b, c}"];
	init_0 -> N9_0 [label="{b}"];
	N1_0 -> N6_0 [label="{b}"];
	init_0 -> N9_0 [label="{c}"];
	init_0 -> N1_0 [label="{b, c, true}"];
	N9_0 -> N6_0 [label="{a, b, true}"];
	N1_0 -> N10_0 [label="{a, true}"];
	N1_0 -> N9_0 [label="{c}"];
	init_0 -> N1_0 [label="{b, true}"];
	N6_0 -> N6_0 [label="{b, true}"];
	init_0 -> N6_0 [label="{a, b, c}"];
	init_0 -> N10_0 [label="{b}"];
	N9_0 -> N6_0 [label="{a, b, c}"];
	N9_0 -> N6_0 [label="{a, b}"];
	N1_0 -> N6_0 [label="{b, c, true}"];
	N1_0 -> N6_0 [label="{b, c}"];
	N1_0 -> N9_0 [label="{b, true}"];
	N10_0 -> N6_0 [label="{b, c, true}"];
	N1_0 -> N10_0 [label="{a, b}"];
	N6_0 -> N6_0 [label="{a, b, true}"];
	N1_0 -> N10_0 [label="{}"];
	N1_0 -> N1_0 [label="{b, true}"];
	N1_0 -> N1_0 [label="{a, b, c, true}"];
	N1_0 -> N6_0 [label="{b, true}"];
	N1_0 -> N1_0 [label="{b, c, true}"];
	N6_0 -> N6_0 [label="{b, c, true}"];
	N9_0 -> N6_0 [label="{a, b, c, true}"];
	N1_0 -> N9_0 [label="{c, true}"];
	N1_0 -> N1_0 [label="{a, true}"];
	N10_0 -> N6_0 [label="{a, b, c}"];
	N1_0 -> N1_0 [label="{true}"];
	init_0 -> N10_0 [label="{a, b}"];
	init_0 -> N6_0 [label="{b, true}"];
}
