{
	"name": "By construction",	
	
	"LTL": {
		"natural language": "Just a simple 'false' requirement",
		"simplified LTL": "F(c && !c)",
		"formal LTL": [
			{"future": [
				{"and": [
					{"not": [
						{"event": "c"}
					]},
					{"event": "c"}
				]}
			]}
		]
	},
		
	"where": [
		{	"event": "c",
			"on": "toy_tracepoint:sensor",
			"on parameters": ["c", "1"],
			"off": "toy_tracepoint:sensor",
			"off parameters": ["c", "0"]
		}
	]
}
